<?xml version="1.0" encoding="utf-8"?>
<!-- Generator: Adobe Illustrator 16.0.0, SVG Export Plug-In . SVG Version: 6.00 Build 0)  -->
<!DOCTYPE svg PUBLIC "-//W3C//DTD SVG 1.1//EN" "http://www.w3.org/Graphics/SVG/1.1/DTD/svg11.dtd">
<svg version="1.1" id="Layer_1" xmlns="http://www.w3.org/2000/svg" xmlns:xlink="http://www.w3.org/1999/xlink" x="0px" y="0px"
	 width="47px" height="41px" viewBox="0 0 47 41" enable-background="new 0 0 47 41" xml:space="preserve">
<path fill-rule="evenodd" clip-rule="evenodd" fill="#FFFFFF" d="M8.014,13.523c1.142,0,2.283-0.011,3.425,0.002
	c3.558,0.04,5.595,2.679,4.747,6.139c-0.868,3.539-3.051,5.217-7.005,5.358c-1.045,0.036-2.093,0.04-3.139,0.011
	c-0.569-0.017-0.863,0.12-0.937,0.756c-0.115,0.989-0.358,1.962-0.51,2.948c-0.069,0.445-0.277,0.603-0.712,0.593
	c-0.879-0.019-1.761-0.034-2.639,0.006c-0.608,0.027-0.659-0.255-0.568-0.74c0.532-2.849,1.051-5.7,1.578-8.549
	c0.354-1.916,0.746-3.825,1.058-5.747c0.105-0.65,0.395-0.807,0.994-0.79c1.235,0.036,2.473,0.011,3.709,0.011
	C8.014,13.521,8.014,13.522,8.014,13.523z M8.8,16.476c-0.495,0-0.854,0.027-1.206-0.006c-0.559-0.054-0.799,0.166-0.891,0.73
	c-0.228,1.403-0.508,2.798-0.791,4.191c-0.099,0.486,0.006,0.72,0.547,0.7C7.406,22.055,8.352,22.1,9.3,21.99
	c2.043-0.234,3.04-1.248,3.177-3.322c0.074-1.131-0.493-1.854-1.62-2.049C10.13,16.494,9.398,16.437,8.8,16.476z"/>
<path fill-rule="evenodd" clip-rule="evenodd" fill="#FFFFFF" d="M37.998,13.522c1.143,0.001,2.283-0.01,3.426,0.003
	c3.529,0.04,5.564,2.641,4.764,6.072c-0.832,3.559-3.055,5.284-7.027,5.424c-1.045,0.036-2.094,0.04-3.139,0.011
	c-0.57-0.016-0.861,0.124-0.936,0.759c-0.115,0.988-0.357,1.962-0.51,2.947c-0.068,0.447-0.281,0.6-0.715,0.591
	c-0.879-0.019-1.76-0.034-2.639,0.005c-0.611,0.028-0.654-0.26-0.564-0.742c0.674-3.619,1.338-7.241,2.006-10.861
	c0.217-1.168,0.461-2.331,0.645-3.504c0.084-0.526,0.301-0.727,0.838-0.715C35.429,13.54,36.714,13.521,37.998,13.522z
	 M38.779,16.477c-0.533,0-0.938,0.02-1.34-0.005c-0.438-0.028-0.65,0.157-0.727,0.583c-0.268,1.469-0.543,2.936-0.832,4.401
	c-0.096,0.48,0.082,0.65,0.555,0.635c0.945-0.033,1.893,0.011,2.84-0.099c2.051-0.236,3.041-1.241,3.184-3.316
	c0.076-1.132-0.488-1.859-1.613-2.055C40.119,16.494,39.386,16.437,38.779,16.477z"/>
<path fill-rule="evenodd" clip-rule="evenodd" fill="#FFFFFF" d="M18.257,25.041c-0.404,0-0.81-0.022-1.212,0.006
	c-0.601,0.041-0.717-0.193-0.595-0.764c0.856-4.019,1.684-8.043,2.522-12.066c0.257-1.232,0.542-2.459,0.769-3.697
	c0.094-0.513,0.293-0.743,0.837-0.72c0.807,0.035,1.618,0.039,2.424-0.001c0.623-0.031,0.792,0.171,0.649,0.784
	c-0.322,1.388-0.563,2.794-0.896,4.18c-0.148,0.619,0.001,0.77,0.627,0.772c1.588,0.007,3.186-0.145,4.768,0.128
	c2.35,0.405,3.357,1.816,2.898,4.184c-0.424,2.191-0.936,4.366-1.393,6.551c-0.1,0.479-0.328,0.674-0.83,0.652
	c-0.83-0.035-1.664-0.035-2.496-0.002c-0.65,0.027-0.75-0.227-0.617-0.816c0.441-1.97,0.852-3.946,1.242-5.926
	c0.223-1.124-0.139-1.556-1.285-1.734c-1.043-0.162-2.089-0.051-3.132-0.101c-0.543-0.026-0.602,0.341-0.682,0.724
	c-0.467,2.208-0.939,4.414-1.404,6.622c-0.295,1.405-0.146,1.203-1.482,1.224C18.733,25.045,18.495,25.042,18.257,25.041z"/>
<path fill-rule="evenodd" clip-rule="evenodd" fill="#FFFFFF" d="M8.8,16.476c0.599-0.039,1.331,0.018,2.057,0.143
	c1.127,0.195,1.694,0.918,1.62,2.049c-0.137,2.074-1.133,3.087-3.177,3.322c-0.949,0.109-1.895,0.064-2.841,0.101
	c-0.541,0.021-0.646-0.214-0.547-0.7c0.283-1.393,0.563-2.788,0.791-4.191c0.092-0.564,0.332-0.784,0.891-0.73
	C7.946,16.503,8.305,16.476,8.8,16.476z"/>
<path fill-rule="evenodd" clip-rule="evenodd" fill="#FFFFFF" d="M38.779,16.477c0.607-0.04,1.34,0.018,2.066,0.144
	c1.125,0.195,1.689,0.923,1.613,2.055c-0.143,2.075-1.133,3.08-3.184,3.316c-0.947,0.109-1.895,0.065-2.84,0.099
	c-0.473,0.016-0.65-0.154-0.555-0.635c0.289-1.465,0.564-2.932,0.832-4.401c0.076-0.426,0.289-0.611,0.727-0.583
	C37.841,16.497,38.246,16.477,38.779,16.477z"/>
</svg>
