{
	"times": {
		"0": {
			"name": "H:m:s (24:10:20)",
			"value": "HH:mm:ss"
		},
		"1": {
			"name": "H:m (24:10)",
			"value": "HH:mm"
		},
		"2": {
			"name": "h:m:s A (02:10:30 PM)",
			"value": "hh:mm:ss A"
		},
		"3": {
			"name": "h:m A (02:20 PM)",
			"value": "hh:mm A"
		}
	},
	"dates": {
		"0": {
			"name": "MM/DD/YY (02/17/2020)",
			"value": "MM/DD/YYYY"
		},
		"1": {
			"name": "DD/MM/YY (17/02/2020)",
			"value": "DD/MM/YYYY"
		},
		"2": {
			"name": "YY/MM/DD (2020/06/06)",
			"value": "YYYY/MM/DD"
		},
		"3": {
			"name": "YY-MM-DD (2020-06-06)",
			"value": "YYYY-MM-DD"
		},
		"4": {
			"name": "Month D, Yr (Feb 17, 2020)",
			"value": "MMM DD, YYYY"
		},
		"5": {
			"name": "D Month, Yr (17 Feb, 2020)",
			"value": "DD MMMM, YYYY"
		}
	},
	"zones": {
		"0": {
			"name": "UTC",
			"value": "UTC"
		},
		"1": {
			"name": "Pacific/Midway",
			"value": "Pacific/Midway"
		},
		"2": {
			"name": "Pacific/Pago_Pago",
			"value": "Pacific/Pago_Pago"
		},
		"3": {
			"name": "Pacific/Honolulu",
			"value": "Pacific/Honolulu"
		},
		"4": {
			"name": "America/Anchorage",
			"value": "America/Anchorage"
		},
		"5": {
			"name": "America/Vancouver",
			"value": "America/Vancouver"
		},
		"6": {
			"name": "America/Los_Angeles",
			"value": "America/Los_Angeles"
		},
		"7": {
			"name": "America/Tijuana",
			"value": "America/Tijuana"
		},
		"8": {
			"name": "America/Phoenix",
			"value": "America/Phoenix"
		},
		"9": {
			"name": "America/Edmonton",
			"value": "America/Edmonton"
		},
			"10": {
			"name": "America/Denver",
			"value": "America/Denver"
		},
		"11": {
			"name": "America/Mazatlan",
			"value": "America/Mazatlan"
		},
		"12": {
			"name": "America/Regina",
			"value": "America/Regina"
		},
		"13": {
			"name": "America/Guatemala",
			"value": "America/Guatemala"
		},
		"14": {
			"name": "America/El_Salvador",
			"value": "America/El_Salvador"
		},
		"15": {
			"name": "America/Managua",
			"value": "America/Managua"
		},
		"16": {
			"name": "America/Costa_Rica",
			"value": "America/Costa_Rica"
		},
		"17": {
			"name": "America/Tegucigalpa",
			"value": "America/Tegucigalpa"
		},
		"18": {
			"name": "America/Winnipeg",
			"value": "America/Winnipeg"
		},
		"19": {
			"name": "America/Chicago",
			"value": "America/Chicago"
		},
		"20": {
			"name": "America/Mexico_City",
			"value": "America/Mexico_City"
		},
		"21": {
			"name": "America/Panama",
			"value": "America/Panama"
		},
		"22": {
			"name": "America/Bogota",
			"value": "America/Bogota"
		},
		"23": {
			"name": "America/Lima",
			"value": "America/Lima"
		},
		"24": {
			"name": "America/Caracas",
			"value": "America/Caracas"
		},
		"25": {
			"name": "America/Montreal",
			"value": "America/Montreal"
		},
		"26": {
			"name": "America/New_York",
			"value": "America/New_York"
		},
		"27": {
			"name": "America/Indianapolis",
			"value": "America/Indianapolis"
		},
		"28": {
			"name": "America/Puerto_Rico",
			"value": "America/Puerto_Rico"
		},
		"29": {
			"name": "America/Santiago",
			"value": "America/Santiago"
		},
		"30": {
			"name": "America/Halifax",
			"value": "America/Halifax"
		},
		"31": {
			"name": "America/Montevideo",
			"value": "America/Montevideo"
		},

		"32": {
			"name": "America/Araguaina",
			"value": "America/Araguaina"
		},
		"33": {
			"name": "America/Argentina/Buenos_Aires",
			"value": "America/Argentina/Buenos_Aires"
		},
		"34": {
			"name": "America/Sao_Paulo",
			"value": "America/Sao_Paulo"
		},
		"35": {
			"name": "Canada/Atlantic",
			"value": "Canada/Atlantic"
		},
		"36": {
			"name": "America/St_Johns",
			"value": "America/St_Johns"
		},
		"37": {
			"name": "America/Godthab",
			"value": "America/Godthab"
		},
		"38": {
			"name": "Atlantic/Cape_Verde",
			"value": "Atlantic/Cape_Verde"
		},
		"39": {
			"name": "Atlantic/Azores",
			"value": "Atlantic/Azores"
		},
		"40": {
			"name": "Etc/Greenwich",
			"value": "Etc/Greenwich"
		},
		"41": {
			"name": "Atlantic/Reykjavik",
			"value": "Atlantic/Reykjavik"
		},
		"42": {
			"name": "Africa/Nouakchott",
			"value": "Africa/Nouakchott"
		},
		"43": {
			"name": "Europe/Dublin",
			"value": "Europe/Dublin"
		},
		"44": {
			"name": "Europe/London",
			"value": "Europe/London"
		},
		"45": {
			"name": "Europe/Lisbon",
			"value": "Europe/Lisbon"
		},
		"46": {
			"name": "Africa/Casablanca",
			"value": "Africa/Casablanca"
		},
		"47": {
			"name": "Africa/Bangui",
			"value": "Africa/Bangui"
		},
		"48": {
			"name": "Africa/Algiers",
			"value": "Africa/Algiers"
		},
		"49": {
			"name": "Africa/Tunis",
			"value": "Africa/Tunis"
		},
		"50": {
			"name": "Europe/Belgrade",
			"value": "Europe/Belgrade"
		},
		"51": {
			"name": "CET",
			"value": "CET"
		},
		"52": {
			"name": "Europe/Oslo",
			"value": "Europe/Oslo"
		},
		"53": {
			"name": "Europe/Copenhagen",
			"value": "Europe/Copenhagen"
		},
		"54": {
			"name": "Europe/Brussels",
			"value": "Europe/Brussels"
		},
		"55": {
			"name": "Europe/Berlin",
			"value": "Europe/Berlin"
		},
		"56": {
			"name": "Europe/Amsterdam",
			"value": "Europe/Amsterdam"
		},
		"57": {
			"name": "Europe/Rome",
			"value": "Europe/Rome"
		},
		"58": {
			"name": "Europe/Stockholm",
			"value": "Europe/Stockholm"
		},
		"59": {
			"name": "Europe/Vienna",
			"value": "Europe/Vienna"
		},
		"60": {
			"name": "Europe/Luxembourg",
			"value": "Europe/Luxembourg"
		},
		"61": {
			"name": "Europe/Paris",
			"value": "Europe/Paris"
		},
		"62": {
			"name": "Europe/Zurich",
			"value": "Europe/Zurich"
		},
		"63": {
			"name": "Europe/Madrid",
			"value": "Europe/Madrid"
		},
		"64": {
			"name": "Europe/Warsaw",
			"value": "Europe/Warsaw"
		},
		"65": {
			"name": "Europe/Prague",
			"value": "Europe/Prague"
		},
		"66": {
			"name": "Europe/Budapest",
			"value": "Europe/Budapest"
		},
		"67": {
			"name": "Africa/Tripoli",
			"value": "Africa/Tripoli"
		},
		"68": {
			"name": "Africa/Cairo",
			"value": "Africa/Cairo"
		},
		"69": {
			"name": "Africa/Johannesburg",
			"value": "Africa/Johannesburg"
		},
		"70": {
			"name": "Europe/Helsinki",
			"value": "Europe/Helsinki"
		},
		"71": {
			"name": "Africa/Nairobi",
			"value": "Africa/Nairobi"
		},
		"72": {
			"name": "Europe/Sofia",
			"value": "Europe/Sofia"
		},
		"73": {
			"name": "Europe/Istanbul",
			"value": "Europe/Istanbul"
		},
		"74": {
			"name": "Europe/Athens",
			"value": "Europe/Athens"
		},
		"75": {
			"name": "Europe/Bucharest",
			"value": "Europe/Bucharest"
		},
		"76": {
			"name": "Asia/Nicosia",
			"value": "Asia/Nicosia"
		},
		"77": {
			"name": "Asia/Beirut",
			"value": "Asia/Beirut"
		},
		"78": {
			"name": "Asia/Damascus",
			"value": "Asia/Damascus"
		},
		"79": {
			"name": "Asia/Jerusalem",
			"value": "Asia/Jerusalem"
		},
		"80": {
			"name": "Asia/Amman",
			"value": "Asia/Amman"
		},
		"81": {
			"name": "Europe/Moscow",
			"value": "Europe/Moscow"
		},
		"82": {
			"name": "Asia/Baghdad",
			"value": "Asia/Baghdad"
		},
		"83": {
			"name": "Asia/Kuwait",
			"value": "Asia/Kuwait"
		},
		"84": {
			"name": "Asia/Riyadh",
			"value": "Asia/Riyadh"
		},
		"85": {
			"name": "Asia/Bahrain",
			"value": "Asia/Bahrain"
		},
		"86": {
			"name": "Asia/Qatar",
			"value": "Asia/Qatar"
		},
		"87": {
			"name": "Asia/Aden",
			"value": "Asia/Aden"
		},
		"88": {
			"name": "Africa/Khartoum",
			"value": "Africa/Khartoum"
		},
		"89": {
			"name": "Africa/Djibouti",
			"value": "Africa/Djibouti"
		},
		"90": {
			"name": "Africa/Mogadishu",
			"value": "Africa/Mogadishu"
		},
		"91": {
			"name": "Europe/Kiev",
			"value": "Europe/Kiev"
		},
		"92": {
			"name": "Asia/Dubai",
			"value": "Asia/Dubai"
		},
		"93": {
			"name": "Asia/Muscat",
			"value": "Asia/Muscat"
		},
		"94": {
			"name": "Asia/Tehran",
			"value": "Asia/Tehran"
		},
		"95": {
			"name": "Asia/Kabul",
			"value": "Asia/Kabul"
		},
		"96": {
			"name": "Asia/Baku",
			"value": "Asia/Baku"
		},
		"97": {
			"name": "Asia/Yekaterinburg",
			"value": "Asia/Yekaterinburg"
		},
		"98": {
			"name": "Asia/Tashkent",
			"value": "Asia/Tashkent"
		},
		"99": {
			"name": "Asia/Calcutta",
			"value": "Asia/Calcutta"
		},
		"100": {
			"name": "Asia/Kolkata",
			"value": "Asia/Kolkata"
		},
		"101": {
			"name": "Asia/Kathmandu",
			"value": "Asia/Kathmandu"
		},
		"102": {
			"name": "Asia/Novosibirsk",
			"value": "Asia/Novosibirsk"
		},
		"103": {
			"name": "Asia/Almaty",
			"value": "Asia/Almaty"
		},
		"104": {
			"name": "Asia/Dacca",
			"value": "Asia/Dacca"
		},
		"105": {
			"name": "Asia/Dhaka",
			"value": "Asia/Dhaka"
		},
		"106": {
			"name": "Asia/Krasnoyarsk",
			"value": "Asia/Krasnoyarsk"
		},
		"107": {
			"name": "Asia/Bangkok",
			"value": "Asia/Bangkok"
		},
		"108": {
			"name": "Asia/Saigon",
			"value": "Asia/Saigon"
		},
		"109": {
			"name": "Asia/Jakarta",
			"value": "Asia/Jakarta"
		},
		"110": {
			"name": "Asia/Irkutsk",
			"value": "Asia/Irkutsk"
		},
		"111": {
			"name": "Asia/Shanghai",
			"value": "Asia/Shanghai"
		},
		"112": {
			"name": "Asia/Hong_Kong",
			"value": "Asia/Hong_Kong"
		},
		"113": {
			"name": "Asia/Taipei",
			"value": "Asia/Taipei"
		},
		"114": {
			"name": "Asia/Kuala_Lumpur",
			"value": "Asia/Kuala_Lumpur"
		},
		"115": {
			"name": "Asia/Singapore",
			"value": "Asia/Singapore"
		},
		"116": {
			"name": "Australia/Perth",
			"value": "Australia/Perth"
		},
		"117": {
			"name": "Asia/Yakutsk",
			"value": "Asia/Yakutsk"
		},
		"118": {
			"name": "Asia/Seoul",
			"value": "Asia/Seoul"
		},
		"119": {
			"name": "Asia/Tokyo",
			"value": "Asia/Tokyo"
		},
		"120": {
			"name": "Australia/Darwin",
			"value": "Australia/Darwin"
		},
		"121": {
			"name": "Australia/Adelaide",
			"value": "Australia/Adelaide"
		},
		"122": {
			"name": "Asia/Vladivostok",
			"value": "Asia/Vladivostok"
		},
		"123": {
			"name": "Pacific/Port_Moresby",
			"value": "Pacific/Port_Moresby"
		},
		"124": {
			"name": "Australia/Brisbane",
			"value": "Australia/Brisbane"
		},
		"125": {
			"name": "Australia/Sydney",
			"value": "Australia/Sydney"
		},
		"126": {
			"name": "Australia/Hobart",
			"value": "Australia/Hobart"
		},
		"127": {
			"name": "Asia/Magadan",
			"value": "Asia/Magadan"
		},
		"128": {
			"name": "SST",
			"value": "SST"
		},
		"129": {
			"name": "Pacific/Noumea",
			"value": "Pacific/Noumea"
		},
		"130": {
			"name": "Asia/Kamchatka",
			"value": "Asia/Kamchatka"
		},
		"131": {
			"name": "Pacific/Fiji",
			"value": "Pacific/Fiji"
		},
		"132": {
			"name": "Pacific/Auckland",
			"value": "Pacific/Auckland"
		}
	}
}