Mamta Rani  Gmail id :-

mamta.rani181987@gmail.com

mamta@$%^&

Date of birth :- 18 February, 1987

Mamta's Mobile phone:-  +91-9646069124

******************************************************


Mamta Rani Upwork id :-

User ID :- 30766b8b

Password :- Mamtateq@^&*87

Security question :-  In what city or town did your mother and father meet?  -  orto

Office Phone Number on upwork :-  +91 01724003543

Hourly Rate :-  $6.00/hr

Profile completeness :-  100%