<?xml version="1.0" encoding="utf-8"?>
<!-- Generator: Adobe Illustrator 16.0.0, SVG Export Plug-In . SVG Version: 6.00 Build 0)  -->
<!DOCTYPE svg PUBLIC "-//W3C//DTD SVG 1.1//EN" "http://www.w3.org/Graphics/SVG/1.1/DTD/svg11.dtd">
<svg version="1.1" id="Layer_1" xmlns="http://www.w3.org/2000/svg" xmlns:xlink="http://www.w3.org/1999/xlink" x="0px" y="0px"
	 width="208px" height="208px" viewBox="0 0 208 208" enable-background="new 0 0 208 208" xml:space="preserve">
<filter  width="116.3%" height="124.2%" id="filter-9" filterUnits="objectBoundingBox" y="-13.2%" x="-7.9%">
	<feGaussianBlur  in="SourceGraphic" stdDeviation="4"></feGaussianBlur>
</filter>
<filter  width="100.0%" height="100.0%" id="filter-8" filterUnits="objectBoundingBox" y="0.0%" x="0.0%">
	<feGaussianBlur  in="SourceGraphic" stdDeviation="0"></feGaussianBlur>
</filter>
<filter  width="228.6%" height="300.0%" id="filter-7" filterUnits="objectBoundingBox" y="-100.0%" x="-64.3%">
	<feGaussianBlur  in="SourceGraphic" stdDeviation="3"></feGaussianBlur>
</filter>
<filter  width="228.6%" height="300.0%" id="filter-6" filterUnits="objectBoundingBox" y="-100.0%" x="-64.3%">
	<feGaussianBlur  in="SourceGraphic" stdDeviation="3"></feGaussianBlur>
</filter>
<filter  width="357.1%" height="500.0%" id="filter-5" filterUnits="objectBoundingBox" y="-200.0%" x="-128.6%">
	<feGaussianBlur  in="SourceGraphic" stdDeviation="6"></feGaussianBlur>
</filter>
<filter  width="100.0%" height="100.0%" id="filter-4" filterUnits="objectBoundingBox" y="0.0%" x="0.0%">
	<feGaussianBlur  in="SourceGraphic" stdDeviation="0"></feGaussianBlur>
</filter>
<filter  width="105.8%" height="105.8%" id="filter-3" filterUnits="objectBoundingBox" y="-2.9%" x="-2.9%">
	<feGaussianBlur  in="SourceGraphic" stdDeviation="2"></feGaussianBlur>
</filter>
<title>8C2BAA90-7ADA-4EC6-B506-C720C2EFCA6B</title>
<desc>Created with sketchtool.</desc>
<linearGradient id="Oval-Copy-18_3_" gradientUnits="userSpaceOnUse" x1="55.5386" y1="152.999" x2="56.5386" y2="151.999" gradientTransform="matrix(-193.0305 -19.46 -19.46 193.0305 13884.9863 -28239.8965)">
	<stop  offset="0" style="stop-color:#0EC4A7"/>
	<stop  offset="1" style="stop-color:#017361"/>
</linearGradient>
<circle id="Oval-Copy-18" fill="url(#Oval-Copy-18_3_)" cx="100.27" cy="106.331" r="97.005"/>
<g id="Oval-Copy-18_1_" filter="url(#filter-3)">
	
		<linearGradient id="SVGID_1_" gradientUnits="userSpaceOnUse" x1="55.9873" y1="152.4766" x2="56.1476" y2="152.4458" gradientTransform="matrix(-188.3904 -18.9922 -18.9922 188.3904 13557.8232 -27550.7383)">
		<stop  offset="0" style="stop-color:#FFFFFF;stop-opacity:0"/>
		<stop  offset="0.2426" style="stop-color:#FFFFFF;stop-opacity:0.3992"/>
		<stop  offset="1" style="stop-color:#FFFFFF"/>
	</linearGradient>
	<circle fill="none" stroke="url(#SVGID_1_)" stroke-width="5" cx="100.27" cy="106.331" r="94.672"/>
</g>
<g id="Oval-Copy-18_2_" filter="url(#filter-4)">
	
		<linearGradient id="SVGID_2_" gradientUnits="userSpaceOnUse" x1="55.9873" y1="152.4766" x2="56.1476" y2="152.4458" gradientTransform="matrix(-188.3904 -18.9922 -18.9922 188.3904 13557.8232 -27550.7383)">
		<stop  offset="0" style="stop-color:#FFFFFF;stop-opacity:0"/>
		<stop  offset="0.2426" style="stop-color:#FFFFFF;stop-opacity:0.3992"/>
		<stop  offset="1" style="stop-color:#FFFFFF"/>
	</linearGradient>
	<circle fill="none" stroke="url(#SVGID_2_)" stroke-width="5" cx="100.27" cy="106.331" r="94.672"/>
</g>
<g id="Oval" filter="url(#filter-5)">
	
		<ellipse transform="matrix(0.4884 0.8726 -0.8726 0.4884 239.5869 -46.3026)" fill="#FFFFFF" cx="159.283" cy="181.184" rx="4.197" ry="6.528"/>
</g>
<g id="Oval_1_" filter="url(#filter-6)">
	
		<ellipse transform="matrix(0.4884 0.8726 -0.8726 0.4884 239.5869 -46.3026)" fill="#FFFFFF" cx="159.283" cy="181.184" rx="4.197" ry="6.528"/>
</g>
<g id="Oval_2_" filter="url(#filter-7)">
	
		<ellipse transform="matrix(0.4884 0.8726 -0.8726 0.4884 239.5869 -46.3026)" fill="#FFFFFF" cx="159.283" cy="181.184" rx="4.197" ry="6.528"/>
</g>
<g id="Oval_3_" filter="url(#filter-8)">
	
		<ellipse transform="matrix(0.4884 0.8726 -0.8726 0.4884 239.5869 -46.3026)" fill="#FFFFFF" cx="159.283" cy="181.184" rx="4.197" ry="6.528"/>
</g>
<g id="Path-9" filter="url(#filter-9)">
	<path fill="none" stroke="#FFFFFF" stroke-width="5" d="M159.283,181.185c-36.618,25.369-74.239,26.576-112.86,3.621
		C14.237,159.999,1.208,128.062,7.333,88.994"/>
</g>
<path id="Path-9_1_" fill="none" stroke="#FFFFFF" stroke-width="5" d="M159.283,181.185c-36.618,25.369-74.239,26.576-112.86,3.621
	C14.237,159.999,1.208,128.062,7.333,88.994"/>
</svg>
